f1,f2,f3,f4,f5,f6,f7,f8,f9,f10,f11,f12,f13,f14,f15,f16,f17,f18,f19,f20,f21,f22,f23,f24,f25,f26,f27,f28,f29,f30,f31,f32,f33,f34,f35,f36,f37,f38,f39,f40,f41,f42,f43,f44,f45,f46,f47,f48,f49,f50,f51,f52,f53,f54,f55,f56,f57,f58,f59,f60,f61,f62,f63,f64,f65,f66,f67,f68,f69,f70,f71,f72,f73,f74,f75,f76,f77,f78,f79,f80,f81,f82,f83,f84,f85,f86,f87,f88,f89,f90,f91,f92,f93,f94,f95,f96,f97,f98,f99,f100,f101,f102,f103,f104,f105,f106,f107,f108,f109,f110,f111,f112,f113,f114
3219.0,0.9036968,0.048772912,0.0024852438,0.23454489,0.0,0.075799935,0.016775396,0.027027028,0.029822927,0.121466294,0.023609817,0.02143523,0.0481516,0.06803355,0.0018639329,0.009009009,0.040385213,0.024231128,0.06679093,0.06679093,0.01988195,9.3196647E-4,0.061509784,0.068344206,0.084187634,0.019571295,0.010872941,0.02143523,6.2131096E-4,0.014600808,0.0012426219,0.0,0.0,0.0,0.0,0.0,0.0,0.0,0.0,0.012426219,0.0,0.0,0.0,0.0,0.0,0.0,0.0,0.0,0.0,0.0,0.0,0.0,791.0,0.63211125,0.0074819243,0.030447932,89.416664,21.972221,0.4500632,0.32743362,0.0505689,0.012722644,0.0,0.0,0.0,0.0,0.05941846,0.01011378,0.0088495575,0.042983565,0.0088495575,0.029077118,0.017699115,0.108723134,0.002528445,0.0,0.094816685,0.068268016,0.00505689,0.002528445,0.0,0.0037926675,0.2250316,0.073324904,0.0063211126,0.04045512,0.002528445,0.0,0.022756005,0.007585335,0.058154237,0.0012642225,0.0,0.0063211126,0.0,0.021491783,0.002528445,0.024020227,0.007585335,0.016434893,0.017699115,0.02022756,0.042983565,0.007585335,0.00505689,0.0,0.0012642225,67.20551,0.012290163,122.746254,0.14204748,11.682228,667.9441
2123.0,0.87564766,0.05463966,0.0,0.22326896,0.0,0.06877061,0.017899198,0.019312294,0.02731983,0.11681583,0.02449364,0.026377767,0.061705135,0.069241636,0.0028261894,0.011304758,0.037682526,0.017428167,0.06782854,0.060763072,0.018841263,4.7103156E-4,0.06358926,0.07772021,0.083372585,0.023551578,0.010362694,0.020254357,9.420631E-4,0.014130947,0.0018841262,0.0,0.0,0.0,0.0,0.0,0.0,0.0,0.0,0.02119642,0.0,0.0,0.0,0.0,0.0,0.0,0.0,0.0,0.0,0.0,0.0,0.0,503.0,0.61431414,0.009134459,0.038553596,73.206894,17.344828,0.53677934,0.42345923,0.045725647,0.04769084,0.0,0.0,0.0,0.0,0.035785288,0.01192843,0.01192843,0.049701788,0.003976143,0.01192843,0.005964215,0.105367795,0.003976143,0.0,0.10735586,0.06560636,0.009940358,0.005964215,0.0,0.009940358,0.17892644,0.07554672,0.021868788,0.041749503,0.0,0.01192843,0.03777336,0.01192843,0.027833002,0.003976143,0.0019880715,0.0019880715,0.0,0.015904572,0.0,0.02385686,0.009940358,0.02584493,0.0019880715,0.01192843,0.05367793,0.0019880715,0.007952286,0.0019880715,0.003976143,71.160034,0.012142286,121.18146,0.16935425,11.0407715,623.0362
4371.0,0.9142073,0.040036604,0.0013726836,0.21413864,0.0,0.07915809,0.016700983,0.028140014,0.029970258,0.11278883,0.022191718,0.02676733,0.04964539,0.06703272,6.863418E-4,0.009151224,0.048043925,0.027453672,0.067261495,0.06520247,0.019903911,4.575612E-4,0.06039808,0.067947835,0.082132235,0.026996111,0.0109814685,0.015785862,9.151224E-4,0.017387325,0.0027453671,0.0,0.0,0.0,0.0,0.0,0.0,0.0,0.0,0.01121025,0.0,0.0,0.0,0.0,0.0,0.0,0.0,0.0,0.0,0.0,0.0,0.0,967.0,0.57807654,0.004883065,0.022072261,141.0,31.193548,0.49534643,0.38986558,0.05067218,0.0029286172,0.0,0.0,0.0,0.0,0.057911064,0.008273009,0.008273009,0.03205791,0.0041365046,0.045501553,0.0031023785,0.091003105,0.0,0.0,0.100310236,0.08273009,0.009307136,0.0010341262,0.0,0.0031023785,0.23681489,0.07342296,0.0103412615,0.03516029,0.0031023785,0.0,0.03516029,0.011375388,0.055842813,0.006204757,0.0,0.0041365046,0.0,0.021716649,0.0,0.019648397,0.014477766,0.02688728,0.0103412615,0.012409514,0.04860393,0.0031023785,0.007238883,0.0,0.0051706308,47.87986,0.011386093,113.74319,0.10578743,11.106083,687.9798
3564.0,0.87991023,0.044893377,0.002805836,0.1952862,0.0,0.08445567,0.017957352,0.036756452,0.030583614,0.11868687,0.019640854,0.017957352,0.037037037,0.06902357,5.6116725E-4,0.010662178,0.046296295,0.024130192,0.0667789,0.056116723,0.020482603,2.8058363E-4,0.07126824,0.06818182,0.08164983,0.022166105,0.013748597,0.015151516,8.417508E-4,0.014590348,0.0019640853,0.0,0.0,0.0,0.0,0.0,0.0,0.0,0.0,0.015712682,0.0,0.0,0.0,0.0,0.0,0.0,0.0,0.0,0.0,5.6116725E-4,0.0,0.0,729.0,0.51028806,0.006513309,0.031842846,108.0,22.09091,0.56790125,0.49382716,0.024691358,0.034534965,0.0,0.0,0.0,0.0,0.041152265,0.012345679,0.012345679,0.042524006,0.0013717421,0.030178327,0.004115226,0.1042524,0.0013717421,0.0,0.0781893,0.1042524,0.0013717421,0.0,0.0,0.0054869684,0.33470508,0.07681756,0.010973937,0.04663923,0.0,0.0,0.020576132,0.009602195,0.012345679,0.0068587107,0.0,0.0013717421,0.0,0.021947874,0.0,0.023319615,0.012345679,0.012345679,0.017832648,0.010973937,0.048010975,0.0027434842,0.004115226,0.0013717421,0.004115226,46.662125,0.010713909,106.99212,0.059640963,10.659966,659.9545
4294.0,0.9021891,0.034000933,0.00302748,0.20237541,0.0,0.07918025,0.017000467,0.030507686,0.032137867,0.12086633,0.02119236,0.022822544,0.044946436,0.07172799,0.002328831,0.0088495575,0.04587797,0.027247323,0.06939916,0.056823473,0.019096414,0.0013972985,0.062645555,0.071262226,0.08639963,0.025850024,0.013507219,0.014438752,6.9864927E-4,0.017000467,4.6576618E-4,0.0,0.0,0.0,0.0,0.0,0.0,0.0,0.0,0.013972986,0.0,0.0,0.0,0.0,0.0,0.0,0.0,0.0,0.0,2.3288309E-4,0.0,0.0,890.0,0.55617976,0.0034212768,0.0165067,204.4762,42.38095,0.49325842,0.38988763,0.046067417,0.020372387,0.0,0.0,0.0,0.0,0.043820225,0.0056179776,0.0056179776,0.023595506,0.0033707866,0.029213483,0.004494382,0.11685393,0.0,0.0,0.10674157,0.083146065,0.0033707866,0.0033707866,0.0,0.007865168,0.16966292,0.06966292,0.011235955,0.03258427,0.0011235955,0.013483146,0.020224718,0.0056179776,0.0764045,0.0011235955,0.0,0.0,0.0,0.020224718,0.0,0.023595506,0.008988764,0.028089888,0.029213483,0.007865168,0.043820225,0.007865168,0.0056179776,0.0011235955,0.006741573,27.032501,0.012477092,124.63073,0.10493717,11.178068,679.7259
4085.0,0.9138311,0.043084454,0.0012239902,0.20563036,0.0,0.06805386,0.015911873,0.03843329,0.028396573,0.11750306,0.029130967,0.019828642,0.05507956,0.07148103,0.0026927784,0.009302326,0.047001224,0.027662179,0.06438188,0.06780906,0.015177479,0.0014687883,0.06634027,0.061689105,0.09277846,0.022276621,0.009302326,0.014443085,9.791922E-4,0.01370869,9.791922E-4,0.0,0.0,0.0,0.0,0.0,0.0,0.0,0.0,0.016646266,0.0,0.0,0.0,0.0,0.0,0.0,0.0,0.0,0.0,0.0,0.0,0.0,867.0,0.5524798,0.004617363,0.021755397,151.2963,32.11111,0.5028835,0.38638985,0.06459054,0.03902608,0.0,0.0,0.0,0.0,0.038062282,0.012687428,0.012687428,0.031141868,0.0011534025,0.02306805,0.00461361,0.10611303,0.0011534025,0.0,0.13033448,0.08765859,0.0034602077,0.002306805,0.0,0.00461361,0.15570934,0.07727797,0.0069204154,0.043829296,0.0,0.012687428,0.027681662,0.010380623,0.051903114,0.0011534025,0.0011534025,0.0011534025,0.0,0.021914648,0.0,0.019607844,0.012687428,0.020761246,0.020761246,0.013840831,0.038062282,0.008073818,0.002306805,0.0,0.0057670125,44.17096,0.011920269,119.0652,0.14814344,11.105626,677.10394
5645.0,0.9147918,0.04942427,0.0024800708,0.20938884,0.0,0.074933566,0.016474757,0.031000886,0.03153233,0.120460585,0.023914969,0.024092117,0.05456156,0.07192206,0.002302923,0.006200177,0.03737821,0.026217893,0.074047826,0.06448184,0.019131975,1.7714791E-4,0.06713906,0.06377325,0.085031,0.020726306,0.010097431,0.016829053,8.857396E-4,0.01275465,5.3144374E-4,0.0,0.0,0.0,0.0,0.0,0.0,0.0,0.0,0.012223206,0.0,0.0,0.0,0.0,0.0,0.0,0.0,0.0,0.0,1.7714791E-4,0.0,0.0,1236.0,0.55906147,0.0065983674,0.030135747,104.53704,22.88889,0.4328479,0.30825242,0.061488673,0.0129350405,0.0,0.0,0.0,0.0,0.039644014,0.009708738,0.009708738,0.04368932,0.009708738,0.029126214,0.012944984,0.09789644,0.0024271845,0.0,0.110032365,0.067152105,0.0072815535,8.090615E-4,0.0,0.0072815535,0.14158577,0.09466019,0.015372168,0.045307443,0.001618123,0.0040453076,0.023462784,0.01618123,0.028317152,0.003236246,0.0,0.003236246,0.0,0.020226536,0.0,0.023462784,0.012135922,0.026699029,0.018608414,0.017799353,0.04368932,0.0056634303,0.004854369,8.090615E-4,0.0024271845,56.63434,0.010942966,109.341125,0.1149321,11.553872,712.374
2667.0,0.8698913,0.063367076,0.00599925,0.22122234,0.0,0.07049119,0.015373078,0.03374578,0.030371204,0.10836145,0.022122234,0.02512186,0.047244094,0.07424072,0.002999625,0.010873641,0.043494564,0.01912261,0.064116985,0.055493064,0.014998125,7.4990623E-4,0.063367076,0.070866145,0.08248969,0.028496439,0.008248969,0.015373078,0.0022497189,0.0119985,3.7495312E-4,0.0,0.0,0.0,0.0,0.0,0.0,0.0,0.0,0.01687289,0.0,0.0,0.0,0.0,0.0,0.0,0.0,0.0,0.0,0.0,0.0,0.0,616.0,0.59577924,0.006618539,0.028655266,102.57692,23.692308,0.52922076,0.42207792,0.051948052,0.019638017,0.0,0.0,0.0,0.0,0.06655844,0.0097402595,0.0097402595,0.040584415,0.0,0.029220778,0.0048701297,0.07467532,0.0,0.0,0.08603896,0.071428575,0.0,0.0016233766,0.0,0.0048701297,0.19155844,0.14123377,0.008116883,0.04383117,0.0,0.025974026,0.025974026,0.022727273,0.025974026,0.0,0.0,0.0032467532,0.0,0.017857144,0.0,0.022727273,0.0048701297,0.017857144,0.0064935065,0.012987013,0.03733766,0.0016233766,0.0032467532,0.0,0.0032467532,60.556793,0.012596346,125.75898,0.15934984,11.041252,643.1574
2615.0,0.89407265,0.050095603,0.008413002,0.2080306,0.0,0.0749522,0.016061185,0.034034416,0.034416825,0.1292543,0.017973231,0.02332696,0.04741874,0.07036329,0.0019120459,0.006500956,0.03632887,0.02370937,0.07456979,0.052772466,0.01835564,0.0015296367,0.062332697,0.067304015,0.0833652,0.025621414,0.01414914,0.013384321,0.0,0.013384321,0.0015296367,0.0,0.0,0.0,0.0,0.0,0.0,0.0,0.0,0.012619503,0.0,0.0,0.0,0.0,0.0,0.0,0.0,0.0,0.0,0.0,0.0,0.0,571.0,0.54991245,0.0070492025,0.032283124,96.85185,21.148148,0.56042033,0.441331,0.06304728,0.032076214,0.0,0.0,0.0,0.0,0.04028021,0.007005254,0.007005254,0.047285464,0.007005254,0.038528897,0.01576182,0.09982487,0.0052539404,0.0,0.082311735,0.08931699,0.0017513135,0.0017513135,0.0,0.012259195,0.15411559,0.10683012,0.008756568,0.052539404,0.0,0.008756568,0.021015761,0.007005254,0.03152364,0.003502627,0.0,0.0,0.0,0.012259195,0.0,0.021015761,0.010507881,0.02451839,0.014010508,0.022767074,0.038528897,0.007005254,0.003502627,0.0,0.0052539404,54.395203,0.010507881,104.89478,0.19702277,10.813355,635.6155
4128.0,0.88783914,0.03609496,7.267442E-4,0.21535853,0.0,0.07000969,0.015503876,0.03391473,0.025436046,0.11579458,0.023255814,0.024467055,0.046511628,0.07727713,9.6899224E-4,0.009205426,0.037790697,0.023498062,0.06661822,0.06346899,0.017441861,7.267442E-4,0.06395349,0.06928295,0.08745155,0.024951551,0.010174419,0.016957365,0.0016957364,0.016472869,0.0019379845,0.0,0.0,0.0,0.0,0.0,0.0,0.0,0.0,0.00750969,0.0,0.0,0.0,0.0,0.0,0.0,0.0,0.0,0.0,0.0,0.0,0.0,928.0,0.57327586,0.0064187837,0.02855252,105.84615,23.794872,0.49245688,0.3911638,0.04202586,0.03299887,0.0,0.0,0.0,0.0,0.06573276,0.0010775862,0.0010775862,0.04202586,0.0096982755,0.029094828,0.00862069,0.08836207,0.0032327587,0.0,0.09806035,0.07650862,0.005387931,0.0,0.0,0.0010775862,0.18642241,0.07974138,0.010775862,0.054956898,0.0,0.0075431033,0.02262931,0.015086207,0.037715517,0.0010775862,0.0,0.004310345,0.0,0.02262931,0.0010775862,0.018318966,0.011853448,0.030172413,0.010775862,0.020474138,0.030172413,0.005387931,0.0010775862,0.0010775862,0.0,55.600883,0.012005729,119.92791,0.0919603,11.159373,683.8885
3757.0,0.91429335,0.036465265,0.0037263774,0.22730902,0.0,0.07559223,0.013574661,0.028214,0.033537395,0.118977904,0.019164227,0.022624435,0.051636945,0.07026883,0.0023955284,0.0069204154,0.04338568,0.021559754,0.07266436,0.066808626,0.017833378,7.9850946E-4,0.05935587,0.06414693,0.093957946,0.022890605,0.010380623,0.01437317,2.661698E-4,0.018365717,5.323396E-4,0.0,0.0,0.0,0.0,0.0,0.0,0.0,0.0,0.008517434,0.0,0.0,0.0,0.0,0.0,0.0,0.0,0.0,0.0,0.0,0.0,0.0,897.0,0.6220736,0.0077046235,0.03227009,87.37209,20.860466,0.4347826,0.30992195,0.05574136,0.033477906,0.0,0.0,0.0,0.0,0.045707915,0.004459309,0.004459309,0.04682274,0.0122631,0.04459309,0.011148272,0.09587514,0.0011148272,0.0,0.10033445,0.08249721,0.0022296545,0.0022296545,0.0,0.011148272,0.13266444,0.065774806,0.005574136,0.03567447,0.0022296545,0.0033444816,0.03901895,0.014492754,0.0490524,0.0011148272,0.0,0.004459309,0.0,0.018952062,0.0,0.032329988,0.0,0.020066889,0.022296544,0.02341137,0.05239688,0.004459309,0.0022296545,0.0,0.004459309,66.16531,0.011715639,117.02579,0.14292656,11.77355,680.4463
209.0,0.97129184,0.009569378,0.0,0.20095694,0.0,0.066985644,0.014354067,0.009569378,0.043062203,0.13875598,0.019138755,0.033492822,0.057416268,0.086124405,0.0,0.009569378,0.033492822,0.043062203,0.07655502,0.043062203,0.0,0.0,0.057416268,0.07655502,0.12440191,0.004784689,0.009569378,0.019138755,0.0,0.009569378,0.0,0.0,0.0,0.0,0.0,0.0,0.0,0.0,0.0,0.0,0.0,0.0,0.0,0.0,0.0,0.0,0.0,0.0,0.0,0.0,0.0,0.0,44.0,0.59090906,0.0067320876,0.031977415,104.5,22.0,0.77272725,0.6363636,0.09090909,0.0,0.0,0.0,0.0,0.0,0.045454547,0.0,0.0,0.045454547,0.0,0.06818182,0.022727273,0.11363637,0.0,0.0,0.11363637,0.045454547,0.045454547,0.0,0.0,0.0,0.06818182,0.022727273,0.0,0.09090909,0.0,0.0,0.045454547,0.0,0.045454547,0.045454547,0.0,0.0,0.0,0.022727273,0.0,0.022727273,0.0,0.045454547,0.022727273,0.022727273,0.045454547,0.0,0.0,0.0,0.0,55.68228,0.017970402,175.61983,2.673797,7.987556,385.63678
3442.0,0.8991865,0.059848923,0.003486345,0.22545032,0.0,0.082800694,0.022951772,0.029924462,0.032248694,0.11069146,0.022951772,0.021789657,0.05229518,0.0676932,0.0017431725,0.011040093,0.048227776,0.01888437,0.0676932,0.059267867,0.014526438,5.810575E-4,0.06449739,0.07437536,0.07699012,0.017141197,0.011040093,0.01859384,0.0014526438,0.01888437,0.0017431725,0.0,0.0,0.0,0.0,0.0,0.0,0.0,0.0,0.018303312,0.0,0.0,0.0,0.0,0.0,0.0,0.0,0.0,0.0,0.0,0.0,0.0,811.0,0.58323056,0.006746528,0.028633231,98.34286,23.171429,0.5104809,0.42046857,0.040690504,0.025125884,0.0,0.0,0.0,0.0,0.054254007,0.013563502,0.013563502,0.043156598,0.0012330456,0.03329223,0.007398274,0.10974106,0.0,0.0,0.10727497,0.054254007,0.0061652283,0.0024660912,0.0,0.003699137,0.17879161,0.10604192,0.012330457,0.03329223,0.003699137,0.009864365,0.01972873,0.00863132,0.023427866,0.0012330456,0.0,0.0024660912,0.0,0.018495684,0.0012330456,0.01972873,0.003699137,0.023427866,0.01972873,0.009864365,0.043156598,0.0061652283,0.0061652283,0.0024660912,0.003699137,63.87458,0.013009393,129.93352,0.09828624,11.075816,670.50775
3471.0,0.90809566,0.045808125,0.003457217,0.21089023,0.0,0.076346874,0.016997984,0.03457217,0.029386343,0.11380006,0.024776721,0.021895707,0.052146357,0.06741573,0.001440507,0.0054739267,0.03918179,0.02218381,0.06885624,0.061941803,0.017574186,0.00201671,0.06856813,0.07000864,0.09507347,0.022760011,0.011524056,0.014116969,2.881014E-4,0.014405071,0.0011524056,0.0,0.0,0.0,0.0,0.0,0.0,0.0,0.0,0.012964563,0.0,0.0,0.0,0.0,0.0,0.0,0.0,0.0,0.0,0.0,0.0,0.0,760.0,0.59605265,0.0055623716,0.025403935,123.96429,27.142857,0.5092105,0.3868421,0.065789476,0.004715163,0.0,0.0,0.0,0.0,0.040789474,0.0065789474,0.0065789474,0.036842104,0.009210526,0.043421052,0.0065789474,0.106578946,0.0013157895,0.0,0.09736842,0.07236842,0.009210526,0.0039473684,0.0,0.0065789474,0.15394737,0.10263158,0.011842106,0.038157895,0.0,0.0065789474,0.018421052,0.009210526,0.039473683,0.009210526,0.0013157895,0.002631579,0.0,0.018421052,0.0,0.023684211,0.005263158,0.028947368,0.014473684,0.014473684,0.043421052,0.0013157895,0.0065789474,0.0,0.002631579,53.38685,0.010938909,109.245155,0.16999865,11.121796,663.99554
1769.0,0.93951386,0.04918033,0.003957038,0.20633127,0.0,0.08027134,0.016958734,0.037874505,0.031091012,0.11927643,0.0254381,0.01978519,0.04861504,0.06500848,0.0033917467,0.00508762,0.04183154,0.029395139,0.07574901,0.05992086,0.017524024,0.0011305823,0.062182024,0.056529112,0.087054834,0.030525722,0.012436405,0.016958734,0.0022611646,0.015262861,0.0,0.0,0.0,0.0,0.0,0.0,0.0,0.0,0.0,0.01017524,0.0,0.0,0.0,0.0,0.0,0.0,0.0,0.0,0.0,0.0,0.0,0.0,378.0,0.55291003,0.005084193,0.023793485,136.07692,29.076923,0.6137566,0.4973545,0.06878307,0.03846261,0.0,0.0,0.0,0.0,0.04761905,0.007936508,0.007936508,0.034391534,0.013227513,0.04232804,0.01058201,0.08730159,0.0,0.0,0.0978836,0.071428575,0.005291005,0.0,0.0,0.01058201,0.12433863,0.11375661,0.01058201,0.05026455,0.0,0.005291005,0.013227513,0.007936508,0.04761905,0.0026455026,0.0,0.0026455026,0.0,0.023809524,0.0,0.031746034,0.013227513,0.023809524,0.026455026,0.02116402,0.034391534,0.0026455026,0.007936508,0.0,0.01058201,48.40764,0.011774943,117.43792,0.29647875,10.497617,594.7644
3683.0,0.8927505,0.039913114,0.0010860711,0.22644584,0.0,0.07738257,0.020092316,0.024165083,0.029866956,0.10643497,0.022535976,0.019006245,0.04914472,0.06923704,0.0029866956,0.010860711,0.04398588,0.022264458,0.06462123,0.068694,0.014933478,8.1455335E-4,0.061906055,0.070866145,0.08661418,0.026337225,0.010589194,0.018734727,5.4303557E-4,0.019006245,5.4303557E-4,0.0,0.0,0.0,0.0,0.0,0.0,0.0,0.0,0.015204996,0.0,0.0,0.0,0.0,0.0,0.0,0.0,0.0,0.0,0.0,0.0,0.0,860.0,0.5976744,0.004794442,0.020532478,141.65384,33.076923,0.49186048,0.38488373,0.04418605,0.014249207,0.0,0.0,0.0,0.0,0.055813953,0.0058139535,0.0058139535,0.030232558,0.010465116,0.024418605,0.0058139535,0.094186045,0.0023255814,0.0,0.10232558,0.074418604,0.0058139535,0.0023255814,0.0,0.010465116,0.18953489,0.08023256,0.013953488,0.038372092,0.0011627907,0.01627907,0.027906977,0.01627907,0.041860465,0.0,0.0,0.003488372,0.0,0.018604651,0.0011627907,0.022093024,0.006976744,0.01627907,0.017441861,0.013953488,0.045348838,0.010465116,0.009302326,0.0,0.003488372,49.804962,0.010601835,105.89508,0.10445874,11.211864,676.3086
2230.0,0.9098655,0.052466366,0.0,0.21434978,0.0,0.07309417,0.013004485,0.033632286,0.02690583,0.1251121,0.025560537,0.0264574,0.05336323,0.069955155,0.0022421526,0.0067264573,0.039910313,0.0264574,0.0690583,0.057847533,0.01838565,8.9686096E-4,0.0735426,0.06860986,0.08026906,0.021973094,0.009865471,0.013452915,0.0013452915,0.010762332,4.4843048E-4,0.0,0.0,0.0,0.0,0.0,0.0,0.0,0.0,0.013452915,0.0,0.0,0.0,0.0,0.0,0.0,0.0,0.0,0.0,0.0,0.0,0.0,496.0,0.578629,0.0055543403,0.024972135,123.888885,27.555555,0.516129,0.40120968,0.04637097,0.0060390267,0.0,0.0,0.0,0.0,0.032258064,0.012096774,0.012096774,0.034274194,0.002016129,0.026209677,0.004032258,0.10483871,0.0,0.0,0.11290322,0.07862903,0.008064516,0.0,0.0,0.002016129,0.3548387,0.09677419,0.012096774,0.030241935,0.0,0.0,0.024193548,0.022177419,0.022177419,0.006048387,0.0,0.002016129,0.0,0.02016129,0.0,0.016129032,0.014112903,0.01814516,0.01814516,0.008064516,0.044354837,0.004032258,0.006048387,0.0,0.002016129,52.13669,0.011241447,112.18783,0.1811366,11.223077,621.63184
