Category,Chars,Alphabetic Chars,Upper-Case,Digit,White-Space,Tab,A,B,C,D,E,F,G,H,I,J,K,L,M,N,O,P,Q,R,S,T,U,V,W,X,Y,Z,f33,f34,f35,f36,f37,f38,f39,f40,f41,f42,f43,f44,f45,f46,f47,f48,f49,f50,f51,f52,f53,Words,Short_Words,Chars in Words,Word length,Sentence Len in chars,Sentence len in words,diff words,Once occuring words,Twice Occuring words,Avg Similarity Score,f64,f65,f66,f67,f68,Left bracs,Right Bracs,f71,f72,CC,CD,DT,EX,FW,IN,JJ,JJR,JJS,LS,MD,NN,NNP,NNPS,NNS,PDT,POS,PRP,f91,RB,RBR,RBS,RP,SYM,TO,UH,VB,VBD,VBG,VBN,VBP,VBZ,WDT,WP,f107,WRB,Flesh Reading,Yules K,Simpsons D,Sichels S,Brunets W,Honores R
R,3219,0.9036968,0.048772912,0.002485244,0.23454489,0,0.075799935,0.016775396,0.027027028,0.029822927,0.121466294,0.023609817,0.02143523,0.0481516,0.06803355,0.001863933,0.009009009,0.040385213,0.024231128,0.06679093,0.06679093,0.01988195,9.32E-04,0.061509784,0.068344206,0.084187634,0.019571295,0.010872941,0.02143523,6.21E-04,0.014600808,0.001242622,0,0,0,0,0,0,0,0,0.012426219,0,0,0,0,0,0,0,0,0,0,0,0,791,0.63211125,0.007481924,0.030447932,89.416664,21.972221,0.4500632,0.32743362,0.0505689,0.012722644,0,0,0,0,0.05941846,0.01011378,0.008849558,0.042983565,0.008849558,0.029077118,0.017699115,0.108723134,0.002528445,0,0.094816685,0.068268016,0.00505689,0.002528445,0,0.003792668,0.2250316,0.073324904,0.006321113,0.04045512,0.002528445,0,0.022756005,0.007585335,0.058154237,0.001264223,0,0.006321113,0,0.021491783,0.002528445,0.024020227,0.007585335,0.016434893,0.017699115,0.02022756,0.042983565,0.007585335,0.00505689,0,0.001264223,67.20551,0.012290163,122.746254,0.14204748,11.682228,667.9441
R,2123,0.87564766,0.05463966,0,0.22326896,0,0.06877061,0.017899198,0.019312294,0.02731983,0.11681583,0.02449364,0.026377767,0.061705135,0.069241636,0.002826189,0.011304758,0.037682526,0.017428167,0.06782854,0.060763072,0.018841263,4.71E-04,0.06358926,0.07772021,0.083372585,0.023551578,0.010362694,0.020254357,9.42E-04,0.014130947,0.001884126,0,0,0,0,0,0,0,0,0.02119642,0,0,0,0,0,0,0,0,0,0,0,0,503,0.61431414,0.009134459,0.038553596,73.206894,17.344828,0.53677934,0.42345923,0.045725647,0.04769084,0,0,0,0,0.035785288,0.01192843,0.01192843,0.049701788,0.003976143,0.01192843,0.005964215,0.105367795,0.003976143,0,0.10735586,0.06560636,0.009940358,0.005964215,0,0.009940358,0.17892644,0.07554672,0.021868788,0.041749503,0,0.01192843,0.03777336,0.01192843,0.027833002,0.003976143,0.001988072,0.001988072,0,0.015904572,0,0.02385686,0.009940358,0.02584493,0.001988072,0.01192843,0.05367793,0.001988072,0.007952286,0.001988072,0.003976143,71.160034,0.012142286,121.18146,0.16935425,11.0407715,623.0362
R,4371,0.9142073,0.040036604,0.001372684,0.21413864,0,0.07915809,0.016700983,0.028140014,0.029970258,0.11278883,0.022191718,0.02676733,0.04964539,0.06703272,6.86E-04,0.009151224,0.048043925,0.027453672,0.067261495,0.06520247,0.019903911,4.58E-04,0.06039808,0.067947835,0.082132235,0.026996111,0.010981469,0.015785862,9.15E-04,0.017387325,0.002745367,0,0,0,0,0,0,0,0,0.01121025,0,0,0,0,0,0,0,0,0,0,0,0,967,0.57807654,0.004883065,0.022072261,141,31.193548,0.49534643,0.38986558,0.05067218,0.002928617,0,0,0,0,0.057911064,0.008273009,0.008273009,0.03205791,0.004136505,0.045501553,0.003102379,0.091003105,0,0,0.100310236,0.08273009,0.009307136,0.001034126,0,0.003102379,0.23681489,0.07342296,0.010341262,0.03516029,0.003102379,0,0.03516029,0.011375388,0.055842813,0.006204757,0,0.004136505,0,0.021716649,0,0.019648397,0.014477766,0.02688728,0.010341262,0.012409514,0.04860393,0.003102379,0.007238883,0,0.005170631,47.87986,0.011386093,113.74319,0.10578743,11.106083,687.9798
R,3564,0.87991023,0.044893377,0.002805836,0.1952862,0,0.08445567,0.017957352,0.036756452,0.030583614,0.11868687,0.019640854,0.017957352,0.037037037,0.06902357,5.61E-04,0.010662178,0.046296295,0.024130192,0.0667789,0.056116723,0.020482603,2.81E-04,0.07126824,0.06818182,0.08164983,0.022166105,0.013748597,0.015151516,8.42E-04,0.014590348,0.001964085,0,0,0,0,0,0,0,0,0.015712682,0,0,0,0,0,0,0,0,0,5.61E-04,0,0,729,0.51028806,0.006513309,0.031842846,108,22.09091,0.56790125,0.49382716,0.024691358,0.034534965,0,0,0,0,0.041152265,0.012345679,0.012345679,0.042524006,0.001371742,0.030178327,0.004115226,0.1042524,0.001371742,0,0.0781893,0.1042524,0.001371742,0,0,0.005486968,0.33470508,0.07681756,0.010973937,0.04663923,0,0,0.020576132,0.009602195,0.012345679,0.006858711,0,0.001371742,0,0.021947874,0,0.023319615,0.012345679,0.012345679,0.017832648,0.010973937,0.048010975,0.002743484,0.004115226,0.001371742,0.004115226,46.662125,0.010713909,106.99212,0.059640963,10.659966,659.9545
R,4294,0.9021891,0.034000933,0.00302748,0.20237541,0,0.07918025,0.017000467,0.030507686,0.032137867,0.12086633,0.02119236,0.022822544,0.044946436,0.07172799,0.002328831,0.008849558,0.04587797,0.027247323,0.06939916,0.056823473,0.019096414,0.001397299,0.062645555,0.071262226,0.08639963,0.025850024,0.013507219,0.014438752,6.99E-04,0.017000467,4.66E-04,0,0,0,0,0,0,0,0,0.013972986,0,0,0,0,0,0,0,0,0,2.33E-04,0,0,890,0.55617976,0.003421277,0.0165067,204.4762,42.38095,0.49325842,0.38988763,0.046067417,0.020372387,0,0,0,0,0.043820225,0.005617978,0.005617978,0.023595506,0.003370787,0.029213483,0.004494382,0.11685393,0,0,0.10674157,0.083146065,0.003370787,0.003370787,0,0.007865168,0.16966292,0.06966292,0.011235955,0.03258427,0.001123596,0.013483146,0.020224718,0.005617978,0.0764045,0.001123596,0,0,0,0.020224718,0,0.023595506,0.008988764,0.028089888,0.029213483,0.007865168,0.043820225,0.007865168,0.005617978,0.001123596,0.006741573,27.032501,0.012477092,124.63073,0.10493717,11.178068,679.7259
R,4085,0.9138311,0.043084454,0.00122399,0.20563036,0,0.06805386,0.015911873,0.03843329,0.028396573,0.11750306,0.029130967,0.019828642,0.05507956,0.07148103,0.002692778,0.009302326,0.047001224,0.027662179,0.06438188,0.06780906,0.015177479,0.001468788,0.06634027,0.061689105,0.09277846,0.022276621,0.009302326,0.014443085,9.79E-04,0.01370869,9.79E-04,0,0,0,0,0,0,0,0,0.016646266,0,0,0,0,0,0,0,0,0,0,0,0,867,0.5524798,0.004617363,0.021755397,151.2963,32.11111,0.5028835,0.38638985,0.06459054,0.03902608,0,0,0,0,0.038062282,0.012687428,0.012687428,0.031141868,0.001153403,0.02306805,0.00461361,0.10611303,0.001153403,0,0.13033448,0.08765859,0.003460208,0.002306805,0,0.00461361,0.15570934,0.07727797,0.006920415,0.043829296,0,0.012687428,0.027681662,0.010380623,0.051903114,0.001153403,0.001153403,0.001153403,0,0.021914648,0,0.019607844,0.012687428,0.020761246,0.020761246,0.013840831,0.038062282,0.008073818,0.002306805,0,0.005767013,44.17096,0.011920269,119.0652,0.14814344,11.105626,677.10394
R,5645,0.9147918,0.04942427,0.002480071,0.20938884,0,0.074933566,0.016474757,0.031000886,0.03153233,0.120460585,0.023914969,0.024092117,0.05456156,0.07192206,0.002302923,0.006200177,0.03737821,0.026217893,0.074047826,0.06448184,0.019131975,1.77E-04,0.06713906,0.06377325,0.085031,0.020726306,0.010097431,0.016829053,8.86E-04,0.01275465,5.31E-04,0,0,0,0,0,0,0,0,0.012223206,0,0,0,0,0,0,0,0,0,1.77E-04,0,0,1236,0.55906147,0.006598367,0.030135747,104.53704,22.88889,0.4328479,0.30825242,0.061488673,0.012935041,0,0,0,0,0.039644014,0.009708738,0.009708738,0.04368932,0.009708738,0.029126214,0.012944984,0.09789644,0.002427185,0,0.110032365,0.067152105,0.007281554,8.09E-04,0,0.007281554,0.14158577,0.09466019,0.015372168,0.045307443,0.001618123,0.004045308,0.023462784,0.01618123,0.028317152,0.003236246,0,0.003236246,0,0.020226536,0,0.023462784,0.012135922,0.026699029,0.018608414,0.017799353,0.04368932,0.00566343,0.004854369,8.09E-04,0.002427185,56.63434,0.010942966,109.341125,0.1149321,11.553872,712.374
R,2667,0.8698913,0.063367076,0.00599925,0.22122234,0,0.07049119,0.015373078,0.03374578,0.030371204,0.10836145,0.022122234,0.02512186,0.047244094,0.07424072,0.002999625,0.010873641,0.043494564,0.01912261,0.064116985,0.055493064,0.014998125,7.50E-04,0.063367076,0.070866145,0.08248969,0.028496439,0.008248969,0.015373078,0.002249719,0.0119985,3.75E-04,0,0,0,0,0,0,0,0,0.01687289,0,0,0,0,0,0,0,0,0,0,0,0,616,0.59577924,0.006618539,0.028655266,102.57692,23.692308,0.52922076,0.42207792,0.051948052,0.019638017,0,0,0,0,0.06655844,0.00974026,0.00974026,0.040584415,0,0.029220778,0.00487013,0.07467532,0,0,0.08603896,0.071428575,0,0.001623377,0,0.00487013,0.19155844,0.14123377,0.008116883,0.04383117,0,0.025974026,0.025974026,0.022727273,0.025974026,0,0,0.003246753,0,0.017857144,0,0.022727273,0.00487013,0.017857144,0.006493507,0.012987013,0.03733766,0.001623377,0.003246753,0,0.003246753,60.556793,0.012596346,125.75898,0.15934984,11.041252,643.1574
R,2615,0.89407265,0.050095603,0.008413002,0.2080306,0,0.0749522,0.016061185,0.034034416,0.034416825,0.1292543,0.017973231,0.02332696,0.04741874,0.07036329,0.001912046,0.006500956,0.03632887,0.02370937,0.07456979,0.052772466,0.01835564,0.001529637,0.062332697,0.067304015,0.0833652,0.025621414,0.01414914,0.013384321,0,0.013384321,0.001529637,0,0,0,0,0,0,0,0,0.012619503,0,0,0,0,0,0,0,0,0,0,0,0,571,0.54991245,0.007049203,0.032283124,96.85185,21.148148,0.56042033,0.441331,0.06304728,0.032076214,0,0,0,0,0.04028021,0.007005254,0.007005254,0.047285464,0.007005254,0.038528897,0.01576182,0.09982487,0.00525394,0,0.082311735,0.08931699,0.001751314,0.001751314,0,0.012259195,0.15411559,0.10683012,0.008756568,0.052539404,0,0.008756568,0.021015761,0.007005254,0.03152364,0.003502627,0,0,0,0.012259195,0,0.021015761,0.010507881,0.02451839,0.014010508,0.022767074,0.038528897,0.007005254,0.003502627,0,0.00525394,54.395203,0.010507881,104.89478,0.19702277,10.813355,635.6155
R,4128,0.88783914,0.03609496,7.27E-04,0.21535853,0,0.07000969,0.015503876,0.03391473,0.025436046,0.11579458,0.023255814,0.024467055,0.046511628,0.07727713,9.69E-04,0.009205426,0.037790697,0.023498062,0.06661822,0.06346899,0.017441861,7.27E-04,0.06395349,0.06928295,0.08745155,0.024951551,0.010174419,0.016957365,0.001695736,0.016472869,0.001937985,0,0,0,0,0,0,0,0,0.00750969,0,0,0,0,0,0,0,0,0,0,0,0,928,0.57327586,0.006418784,0.02855252,105.84615,23.794872,0.49245688,0.3911638,0.04202586,0.03299887,0,0,0,0,0.06573276,0.001077586,0.001077586,0.04202586,0.009698276,0.029094828,0.00862069,0.08836207,0.003232759,0,0.09806035,0.07650862,0.005387931,0,0,0.001077586,0.18642241,0.07974138,0.010775862,0.054956898,0,0.007543103,0.02262931,0.015086207,0.037715517,0.001077586,0,0.004310345,0,0.02262931,0.001077586,0.018318966,0.011853448,0.030172413,0.010775862,0.020474138,0.030172413,0.005387931,0.001077586,0.001077586,0,55.600883,0.012005729,119.92791,0.0919603,11.159373,683.8885
R,3757,0.91429335,0.036465265,0.003726377,0.22730902,0,0.07559223,0.013574661,0.028214,0.033537395,0.118977904,0.019164227,0.022624435,0.051636945,0.07026883,0.002395528,0.006920415,0.04338568,0.021559754,0.07266436,0.066808626,0.017833378,7.99E-04,0.05935587,0.06414693,0.093957946,0.022890605,0.010380623,0.01437317,2.66E-04,0.018365717,5.32E-04,0,0,0,0,0,0,0,0,0.008517434,0,0,0,0,0,0,0,0,0,0,0,0,897,0.6220736,0.007704624,0.03227009,87.37209,20.860466,0.4347826,0.30992195,0.05574136,0.033477906,0,0,0,0,0.045707915,0.004459309,0.004459309,0.04682274,0.0122631,0.04459309,0.011148272,0.09587514,0.001114827,0,0.10033445,0.08249721,0.002229655,0.002229655,0,0.011148272,0.13266444,0.065774806,0.005574136,0.03567447,0.002229655,0.003344482,0.03901895,0.014492754,0.0490524,0.001114827,0,0.004459309,0,0.018952062,0,0.032329988,0,0.020066889,0.022296544,0.02341137,0.05239688,0.004459309,0.002229655,0,0.004459309,66.16531,0.011715639,117.02579,0.14292656,11.77355,680.4463
R,209,0.97129184,0.009569378,0,0.20095694,0,0.066985644,0.014354067,0.009569378,0.043062203,0.13875598,0.019138755,0.033492822,0.057416268,0.086124405,0,0.009569378,0.033492822,0.043062203,0.07655502,0.043062203,0,0,0.057416268,0.07655502,0.12440191,0.004784689,0.009569378,0.019138755,0,0.009569378,0,0,0,0,0,0,0,0,0,0,0,0,0,0,0,0,0,0,0,0,0,0,44,0.59090906,0.006732088,0.031977415,104.5,22,0.77272725,0.6363636,0.09090909,0,0,0,0,0,0.045454547,0,0,0.045454547,0,0.06818182,0.022727273,0.11363637,0,0,0.11363637,0.045454547,0.045454547,0,0,0,0.06818182,0.022727273,0,0.09090909,0,0,0.045454547,0,0.045454547,0.045454547,0,0,0,0.022727273,0,0.022727273,0,0.045454547,0.022727273,0.022727273,0.045454547,0,0,0,0,55.68228,0.017970402,175.61983,2.673797,7.987556,385.63678
R,3442,0.8991865,0.059848923,0.003486345,0.22545032,0,0.082800694,0.022951772,0.029924462,0.032248694,0.11069146,0.022951772,0.021789657,0.05229518,0.0676932,0.001743173,0.011040093,0.048227776,0.01888437,0.0676932,0.059267867,0.014526438,5.81E-04,0.06449739,0.07437536,0.07699012,0.017141197,0.011040093,0.01859384,0.001452644,0.01888437,0.001743173,0,0,0,0,0,0,0,0,0.018303312,0,0,0,0,0,0,0,0,0,0,0,0,811,0.58323056,0.006746528,0.028633231,98.34286,23.171429,0.5104809,0.42046857,0.040690504,0.025125884,0,0,0,0,0.054254007,0.013563502,0.013563502,0.043156598,0.001233046,0.03329223,0.007398274,0.10974106,0,0,0.10727497,0.054254007,0.006165228,0.002466091,0,0.003699137,0.17879161,0.10604192,0.012330457,0.03329223,0.003699137,0.009864365,0.01972873,0.00863132,0.023427866,0.001233046,0,0.002466091,0,0.018495684,0.001233046,0.01972873,0.003699137,0.023427866,0.01972873,0.009864365,0.043156598,0.006165228,0.006165228,0.002466091,0.003699137,63.87458,0.013009393,129.93352,0.09828624,11.075816,670.50775
R,3471,0.90809566,0.045808125,0.003457217,0.21089023,0,0.076346874,0.016997984,0.03457217,0.029386343,0.11380006,0.024776721,0.021895707,0.052146357,0.06741573,0.001440507,0.005473927,0.03918179,0.02218381,0.06885624,0.061941803,0.017574186,0.00201671,0.06856813,0.07000864,0.09507347,0.022760011,0.011524056,0.014116969,2.88E-04,0.014405071,0.001152406,0,0,0,0,0,0,0,0,0.012964563,0,0,0,0,0,0,0,0,0,0,0,0,760,0.59605265,0.005562372,0.025403935,123.96429,27.142857,0.5092105,0.3868421,0.065789476,0.004715163,0,0,0,0,0.040789474,0.006578947,0.006578947,0.036842104,0.009210526,0.043421052,0.006578947,0.106578946,0.00131579,0,0.09736842,0.07236842,0.009210526,0.003947368,0,0.006578947,0.15394737,0.10263158,0.011842106,0.038157895,0,0.006578947,0.018421052,0.009210526,0.039473683,0.009210526,0.00131579,0.002631579,0,0.018421052,0,0.023684211,0.005263158,0.028947368,0.014473684,0.014473684,0.043421052,0.00131579,0.006578947,0,0.002631579,53.38685,0.010938909,109.245155,0.16999865,11.121796,663.99554
R,1769,0.93951386,0.04918033,0.003957038,0.20633127,0,0.08027134,0.016958734,0.037874505,0.031091012,0.11927643,0.0254381,0.01978519,0.04861504,0.06500848,0.003391747,0.00508762,0.04183154,0.029395139,0.07574901,0.05992086,0.017524024,0.001130582,0.062182024,0.056529112,0.087054834,0.030525722,0.012436405,0.016958734,0.002261165,0.015262861,0,0,0,0,0,0,0,0,0,0.01017524,0,0,0,0,0,0,0,0,0,0,0,0,378,0.55291003,0.005084193,0.023793485,136.07692,29.076923,0.6137566,0.4973545,0.06878307,0.03846261,0,0,0,0,0.04761905,0.007936508,0.007936508,0.034391534,0.013227513,0.04232804,0.01058201,0.08730159,0,0,0.0978836,0.071428575,0.005291005,0,0,0.01058201,0.12433863,0.11375661,0.01058201,0.05026455,0,0.005291005,0.013227513,0.007936508,0.04761905,0.002645503,0,0.002645503,0,0.023809524,0,0.031746034,0.013227513,0.023809524,0.026455026,0.02116402,0.034391534,0.002645503,0.007936508,0,0.01058201,48.40764,0.011774943,117.43792,0.29647875,10.497617,594.7644
R,3683,0.8927505,0.039913114,0.001086071,0.22644584,0,0.07738257,0.020092316,0.024165083,0.029866956,0.10643497,0.022535976,0.019006245,0.04914472,0.06923704,0.002986696,0.010860711,0.04398588,0.022264458,0.06462123,0.068694,0.014933478,8.15E-04,0.061906055,0.070866145,0.08661418,0.026337225,0.010589194,0.018734727,5.43E-04,0.019006245,5.43E-04,0,0,0,0,0,0,0,0,0.015204996,0,0,0,0,0,0,0,0,0,0,0,0,860,0.5976744,0.004794442,0.020532478,141.65384,33.076923,0.49186048,0.38488373,0.04418605,0.014249207,0,0,0,0,0.055813953,0.005813954,0.005813954,0.030232558,0.010465116,0.024418605,0.005813954,0.094186045,0.002325581,0,0.10232558,0.074418604,0.005813954,0.002325581,0,0.010465116,0.18953489,0.08023256,0.013953488,0.038372092,0.001162791,0.01627907,0.027906977,0.01627907,0.041860465,0,0,0.003488372,0,0.018604651,0.001162791,0.022093024,0.006976744,0.01627907,0.017441861,0.013953488,0.045348838,0.010465116,0.009302326,0,0.003488372,49.804962,0.010601835,105.89508,0.10445874,11.211864,676.3086
R,2230,0.9098655,0.052466366,0,0.21434978,0,0.07309417,0.013004485,0.033632286,0.02690583,0.1251121,0.025560537,0.0264574,0.05336323,0.069955155,0.002242153,0.006726457,0.039910313,0.0264574,0.0690583,0.057847533,0.01838565,8.97E-04,0.0735426,0.06860986,0.08026906,0.021973094,0.009865471,0.013452915,0.001345292,0.010762332,4.48E-04,0,0,0,0,0,0,0,0,0.013452915,0,0,0,0,0,0,0,0,0,0,0,0,496,0.578629,0.00555434,0.024972135,123.888885,27.555555,0.516129,0.40120968,0.04637097,0.006039027,0,0,0,0,0.032258064,0.012096774,0.012096774,0.034274194,0.002016129,0.026209677,0.004032258,0.10483871,0,0,0.11290322,0.07862903,0.008064516,0,0,0.002016129,0.3548387,0.09677419,0.012096774,0.030241935,0,0,0.024193548,0.022177419,0.022177419,0.006048387,0,0.002016129,0,0.02016129,0,0.016129032,0.014112903,0.01814516,0.01814516,0.008064516,0.044354837,0.004032258,0.006048387,0,0.002016129,52.13669,0.011241447,112.18783,0.1811366,11.223077,621.63184
A,126,0.97619045,0.023809524,0,0.16666667,0,0.0952381,0.007936508,0.031746034,0.055555556,0.11904762,0.031746034,0.03968254,0.031746034,0.04761905,0,0,0.06349207,0.007936508,0.08730159,0.06349207,0,0,0.103174604,0.03968254,0.055555556,0.015873017,0,0.03968254,0,0.03968254,0,0,0,0,0,0,0,0,0,0,0,0,0,0,0,0,0,0,0,0,0,0,24,0.45833334,0.017390465,0.09129994,42,8,0.7916667,0.6666667,0.041666668,0.010037183,0,0,0,0,0,0,0,0.125,0,0.125,0,0.041666668,0,0,0.083333336,0.125,0,0,0,0,0.16666667,0,0,0.041666668,0,0,0.041666668,0,0.083333336,0,0,0,0,0,0,0,0,0.083333336,0,0.083333336,0,0,0,0,0,50.66501,0.025362318,243.05556,2.1929824,6.865565,329.36194
A,183,0.9508197,0.010928961,0,0.22950819,0,0.06557377,0.016393442,0.016393442,0.021857923,0.1420765,0.021857923,0.010928961,0.04918033,0.06557377,0,0.016393442,0.04918033,0.032786883,0.043715846,0.10928962,0.016393442,0,0.06010929,0.04918033,0.10928962,0.005464481,0.032786883,0.016393442,0,0.010928961,0,0,0,0,0,0,0,0,0,0,0,0,0,0,0,0,0,0,0,0,0,0,44,0.6363636,0.007376135,0.030678017,91.5,22,0.75,0.6136364,0.09090909,0,0,0,0,0,0,0,0,0.045454547,0,0.045454547,0,0.11363637,0,0,0.06818182,0.09090909,0,0.022727273,0,0,0.20454545,0,0,0.06818182,0,0,0.022727273,0,0.09090909,0,0,0,0,0.045454547,0,0.022727273,0,0,0.045454547,0.045454547,0.045454547,0.022727273,0,0,0,72.986824,0.021141648,206.61157,2.754821,8.072449,385.58902
A,181,0.98342544,0.011049724,0,0.25414366,0,0.06077348,0.022099448,0.03314917,0.016574586,0.12707183,0.027624309,0.005524862,0.055248618,0.07734807,0,0.016574586,0.038674034,0.044198897,0.044198897,0.0718232,0.016574586,0,0.055248618,0.08839779,0.12707183,0.022099448,0.005524862,0.011049724,0,0.016574586,0,0,0,0,0,0,0,0,0,0,0,0,0,0,0,0,0,0,0,0,0,0,48,0.75,0.007257355,0.027366279,90.5,24,0.7291667,0.5625,0.104166664,0,0,0,0,0,0.020833334,0,0,0.041666668,0,0.020833334,0,0.125,0.020833334,0,0.125,0.1875,0,0,0,0,0.0625,0.020833334,0,0.0625,0,0,0.020833334,0,0.14583333,0,0,0.020833334,0,0,0,0,0,0,0.041666668,0.020833334,0.0625,0,0,0,0,78.48751,0.01861702,182.29167,2.9761903,8.291353,393.44333
A,132,0.9621212,0.022727273,0,0.24242425,0,0.045454547,0.015151516,0.03787879,0.030303031,0.12878788,0.03787879,0.015151516,0.060606062,0.060606062,0,0.015151516,0.045454547,0.022727273,0.06818182,0.083333336,0.007575758,0.007575758,0.030303031,0.045454547,0.09848485,0.030303031,0.022727273,0.015151516,0,0.03787879,0,0,0,0,0,0,0,0,0,0,0,0,0,0,0,0,0,0,0,0,0,0,35,0.71428573,0.014802587,0.0558269,44,11.666667,0.82857144,0.6857143,0.114285715,0.028493375,0,0,0,0,0.057142857,0,0,0.08571429,0,0,0,0.14285715,0,0,0.114285715,0.08571429,0,0,0,0,0.114285715,0,0,0.057142857,0,0,0.057142857,0.028571429,0.14285715,0,0,0,0,0.028571429,0,0,0.08571429,0,0,0,0,0,0,0,0,83.80477,0.011764706,114.28571,3.9408867,7.4315853,364.14517
A,93,0.94623655,0.58064514,0,0.20430107,0,0.06451613,0.021505376,0.021505376,0,0.1827957,0.010752688,0.07526882,0.07526882,0.06451613,0,0,0.010752688,0.05376344,0.043010753,0.032258064,0,0,0.05376344,0.086021505,0.07526882,0.043010753,0.010752688,0.021505376,0,0,0,0,0,0,0,0,0,0,0,0,0,0,0,0,0,0,0,0,0,0,0,0,20,0.45,0.007518797,0.034962405,93,20,0.55,0.3,0.05,0,0,0,0,0,0,0,0,0,0,0.05,0,0.15,0,0,0,0.05,0,0,0,0,0.2,0.2,0.15,0,0,0,0,0,0,0,0,0,0,0,0,0,0,0.05,0,0,0.15,0,0,0,0,59.63501,0.06842105,650,4.5454545,7.336131,307.97247
A,88,0.875,0.03409091,0.011363637,0.2840909,0,0.03409091,0.03409091,0.03409091,0,0.09090909,0.022727273,0.07954545,0.056818184,0.09090909,0,0.011363637,0.03409091,0.011363637,0.045454547,0.09090909,0,0,0.03409091,0.056818184,0.10227273,0.03409091,0.011363637,0,0,0,0,0,0,0,0,0,0,0,0,0,0,0,0,0,0,0,0,0,0,0,0,0,26,0.7692308,0.007142859,0.02417583,88,26,0.84615386,0.6923077,0.15384616,0,0,0,0,0,0.03846154,0,0,0,0,0.03846154,0.03846154,0.15384616,0,0,0.07692308,0,0,0.03846154,0,0,0.115384616,0.03846154,0,0.03846154,0,0,0.03846154,0,0,0,0,0,0,0.07692308,0,0.07692308,0,0.115384616,0,0.03846154,0.07692308,0,0,0,0,89.33731,0.012307692,118.34319,6.993007,6.864924,336.3955
A,675,0.90518516,0.06814815,0.007407407,0.2562963,0,0.072592594,0.025185185,0.017777778,0.035555556,0.114074074,0.014814815,0.017777778,0.045925926,0.06814815,0.002962963,0.016296295,0.04148148,0.023703704,0.053333335,0.08148148,0.016296295,0.001481482,0.04,0.05185185,0.10222222,0.02962963,0.011851852,0.026666667,0.002962963,0.01925926,0.001481482,0,0,0,0,0,0,0,0,0.007407407,0,0,0,0,0,0,0,0,0,0,0,0,183,0.73770493,0.00961663,0.035471175,67.5,18.3,0.5409836,0.36612022,0.06557377,0.053481497,0,0,0,0,0.06010929,0.005464481,0.005464481,0.05464481,0.010928961,0.032786883,0.010928961,0.10382514,0.005464481,0,0.08743169,0.05464481,0,0,0,0.010928961,0.10928962,0.021857923,0.005464481,0.032786883,0,0.005464481,0.08196721,0.010928961,0.043715846,0,0,0,0,0.038251366,0.005464481,0.05464481,0.043715846,0.016393442,0.016393442,0.043715846,0.027322404,0,0.016393442,0,0.005464481,85.63101,0.012970636,128.99757,0.66236126,10.861957,522.8823
A,1204,0.91694355,0.034053154,0.00166113,0.2333887,0,0.069767445,0.014950166,0.029900333,0.03322259,0.12126246,0.029069768,0.024086379,0.0589701,0.094684385,0.00166113,0.009136213,0.032392025,0.030730898,0.058139537,0.070598006,0.014950166,8.31E-04,0.05232558,0.05232558,0.10465116,0.019933555,0.013289036,0.014950166,0.002491694,0.012458472,0,0,0,0,0,0,0,0,0,0.00166113,0,0,0,0,0,0,0,0,0,0,0,0,294,0.6632653,0.007183458,0.02941797,92.61539,22.615385,0.50680274,0.34353742,0.08503401,0.014624173,0,0,0,0,0.017006803,0,0,0.05102041,0.006802721,0.037414964,0.010204081,0.1122449,0.006802721,0,0.08503401,0.08503401,0.006802721,0.003401361,0,0.003401361,0.12585033,0.040816326,0.010204081,0.027210884,0.003401361,0.006802721,0.088435374,0.006802721,0.044217687,0.006802721,0,0.010204081,0,0.020408163,0,0.020408163,0.071428575,0.027210884,0.013605442,0.030612245,0.023809524,0,0.003401361,0,0.003401361,66.76406,0.01353579,134.89749,0.5706981,11.331854,569.67145
A,621,0.9049919,0.074074075,0,0.23832528,0,0.078904994,0.024154589,0.030595813,0.028985508,0.13848631,0.022544283,0.032206118,0.053140096,0.061191626,0.001610306,0.009661836,0.028985508,0.028985508,0.053140096,0.061191626,0.011272142,0,0.072463766,0.056360707,0.080515295,0.019323671,0.011272142,0.020933978,0,0.009661836,0,0,0,0,0,0,0,0,0,0.012882448,0,0,0,0,0,0,0,0,0,0,0,0,161,0.65217394,0.013397065,0.051674392,47.76923,12.384615,0.60248446,0.41614908,0.111801244,0.07781094,0,0,0,0,0.04347826,0.012422361,0.012422361,0.08074534,0.00621118,0.049689442,0,0.0931677,0,0,0.062111802,0.06832298,0,0,0,0.012422361,0.099378884,0.049689442,0.024844721,0.04347826,0,0,0.06832298,0,0.07453416,0,0,0,0,0.012422361,0,0.024844721,0.012422361,0.031055901,0.031055901,0.055900622,0.01863354,0,0.012422361,0,0,85.493195,0.013664597,135.79723,1.1525902,10.326444,510.32983
A,87,0.9310345,0.04597701,0,0.25287357,0,0.03448276,0.011494253,0.011494253,0.03448276,0.10344828,0.011494253,0.011494253,0.022988506,0.13793103,0,0.011494253,0.057471264,0.022988506,0.057471264,0.12643678,0.011494253,0,0.011494253,0.08045977,0.06896552,0.022988506,0.022988506,0.022988506,0,0.03448276,0,0,0,0,0,0,0,0,0,0,0,0,0,0,0,0,0,0,0,0,0,0,26,0.6923077,0.029056415,0.09722723,21.75,6.5,0.84615386,0.6923077,0.15384616,0.02548077,0,0,0,0,0.07692308,0,0,0.15384616,0,0,0,0.07692308,0,0,0.03846154,0.03846154,0,0,0,0.03846154,0.115384616,0,0,0,0,0,0.115384616,0.03846154,0.15384616,0,0,0,0,0.03846154,0,0.03846154,0.07692308,0,0,0,0,0,0,0,0,83.09904,0.012307692,118.34319,6.993007,6.864924,336.3955
A,78,0.9230769,0.012820513,0.012820513,0.25641027,0,0.03846154,0,0.051282052,0,0.06410257,0.012820513,0.025641026,0.03846154,0.15384616,0.012820513,0.025641026,0.051282052,0.03846154,0.051282052,0.102564104,0,0,0.012820513,0.08974359,0.08974359,0,0.03846154,0,0,0.025641026,0,0,0,0,0,0,0,0,0,0,0,0,0,0,0,0,0,0,0,0,0,0,25,0.84,0.038081437,0.11881409,15.6,5,0.72,0.56,0.12,0,0,0,0,0,0,0,0,0.2,0,0,0.04,0.08,0,0,0.04,0.04,0,0,0,0,0.2,0,0,0,0,0,0.12,0.04,0.04,0,0,0,0,0,0,0.04,0,0.04,0,0.04,0.08,0,0,0,0,103.624016,0.043333333,416,6.6666665,7.1655293,332.22342
A,7576,0.9594773,0.037618797,0.001583949,0.22663675,0,0.087909184,0.012407603,0.034450896,0.034186907,0.12275607,0.026795143,0.022967266,0.057022177,0.07022175,0.003299895,0.006467793,0.03907075,0.024683211,0.07431362,0.059662092,0.016631467,0.001055966,0.059530094,0.066129886,0.09292503,0.021911299,0.010295671,0.020063357,5.28E-04,0.012935586,0.001055966,0,0,0,0,0,0,0,0,3.96E-04,0,0,0,0,0,0,0,0,0,1.32E-04,0,0,1757,0.61411494,0.003617042,0.015596304,189.4,43.925,0.33010814,0.22026181,0.04325555,7.49E-05,0,0,0,0,0.041548092,0,0,0.022766078,0,0.05862265,0.011952192,0.10984633,0.001707456,0,0.11553785,0.06431417,0.003414912,0.003414912,0,0.006829823,0.120660216,0.09732498,0.013090495,0.052931134,0.001138304,0.003414912,0.02618099,0.013659647,0.038702335,0.001707456,0,0.002276608,0,0.027319293,0.001707456,0.02902675,0.031303357,0.02902675,0.016505407,0.014228799,0.027319293,0.00569152,0.005122368,5.69E-04,0.001707456,43.8015,0.014163976,141.55914,0.07457853,12.589893,747.4201
A,665,0.94736844,0.033082705,0.004511278,0.2586466,0,0.07819549,0.007518797,0.02556391,0.02556391,0.11729323,0.016541352,0.018045112,0.061654136,0.07969925,0.006015038,0.010526316,0.046616543,0.036090225,0.067669176,0.08571429,0.015037594,0,0.04511278,0.05112782,0.0962406,0.019548872,0.010526316,0.033082705,0,0.02255639,0,0,0,0,0,0,0,0.001503759,0,0,0,0,0,0,0,0,0,0,0,0,0,0,177,0.7457627,0.004883511,0.018347654,133,35.4,0.59322035,0.4180791,0.07909604,0,0,0,0,0,0.016949153,0,0,0.028248588,0,0.03954802,0.03954802,0.09039548,0,0,0.107344635,0.04519774,0.011299435,0,0,0.04519774,0.118644066,0.02259887,0,0.04519774,0,0,0.07909604,0.011299435,0.050847456,0.016949153,0,0.005649718,0,0.02259887,0,0.06779661,0.028248588,0.033898305,0.011299435,0.033898305,0.011299435,0,0.011299435,0,0.005649718,66.22943,0.011941449,118.73982,0.7532956,10.448036,519.6842
A,163,0.9570552,0.09815951,0,0.2392638,0,0.0797546,0.018404908,0.012269938,0.024539877,0.14723927,0,0.049079753,0.055214725,0.0797546,0,0.006134969,0.030674847,0.042944785,0.08588957,0.055214725,0.006134969,0,0.024539877,0.073619634,0.06748466,0.024539877,0.024539877,0.036809817,0,0.006134969,0.006134969,0,0,0,0,0,0,0,0,0,0,0,0,0,0,0,0,0,0,0,0,0,44,0.6818182,0.019060047,0.07060881,32.6,8.8,0.77272725,0.59090906,0.1590909,0.046908423,0,0,0,0,0,0,0,0.09090909,0,0.045454547,0.022727273,0.06818182,0.022727273,0,0.06818182,0,0.022727273,0,0,0.022727273,0.06818182,0.022727273,0.022727273,0.06818182,0,0,0.06818182,0,0.11363637,0,0,0,0,0,0.022727273,0.06818182,0.045454547,0.045454547,0.045454547,0.045454547,0,0,0,0,0,95.99845,0.013742072,134.29752,4.6791444,7.987556,385.11212
A,1285,0.94319063,0.031906616,7.78E-04,0.25680932,0,0.07315175,0.010894942,0.025680933,0.030350195,0.114396885,0.030350195,0.020233463,0.05603113,0.09182879,0.00233463,0.010894942,0.030350195,0.040466927,0.06459144,0.08015564,0.010116732,0,0.047470815,0.05836576,0.09182879,0.017898833,0.020233463,0.019455252,7.78E-04,0.017120622,7.78E-04,0,0,0,0,0,0,0,0,7.78E-04,0,0,0,0,0,0,0,0,0,0,0,0,346,0.70520234,0.00797064,0.029601946,80.3125,21.625,0.4566474,0.3034682,0.057803467,0.04046079,0,0,0,0,0.023121387,0,0,0.0433526,0.002890173,0.028901733,0.011560693,0.112716764,0,0,0.095375724,0.07514451,0.00867052,0,0,0.005780347,0.12427746,0.011560693,0,0.014450867,0,0,0.08381503,0.01734104,0.098265894,0,0,0.020231213,0,0.01734104,0,0.028901733,0.037572253,0.040462427,0.014450867,0.049132947,0.011560693,0.002890173,0,0,0.002890173,78.768875,0.01596716,159.21013,0.36584473,11.85092,585.7689
A,310,0.89354837,0.106451616,0,0.24193548,0,0.106451616,0.016129032,0.025806451,0.032258064,0.106451616,0.025806451,0.029032258,0.038709678,0.077419356,0.003225806,0.009677419,0.045161292,0.025806451,0.077419356,0.03548387,0.019354839,0,0.041935485,0.041935485,0.09354839,0.006451613,0.003225806,0.045161292,0,0.022580646,0.006451613,0,0,0,0,0,0,0,0,0,0,0,0,0,0,0,0,0,0,0,0,0,83,0.73493975,0.016301345,0.06088454,38.75,10.375,0.72289157,0.5903614,0.084337346,2.12E-04,0,0,0,0,0.012048192,0,0,0.09638554,0,0.04819277,0,0.09638554,0,0,0.060240965,0.036144577,0,0,0,0.024096385,0.13253012,0.072289154,0.024096385,0,0,0,0.09638554,0.012048192,0.084337346,0,0,0,0,0.012048192,0,0.024096385,0.072289154,0.04819277,0.024096385,0.012048192,0.012048192,0,0,0,0.012048192,84.18391,0.015280635,150.9653,1.4056225,9.052503,446.2751
A,103,0.9126214,0.048543688,0,0.22330096,0,0.08737864,0,0.009708738,0.03883495,0.097087376,0.048543688,0.019417476,0.058252428,0.058252428,0,0,0.03883495,0.029126214,0.067961164,0.097087376,0.019417476,0,0.058252428,0.08737864,0.116504855,0.019417476,0,0.009708738,0.009708738,0.009708738,0,0,0,0,0,0,0,0,0,0,0,0,0,0,0,0,0,0,0,0,0,0,24,0.6666667,0.006622517,0.028421633,103,24,0.7916667,0.6666667,0.083333336,0,0,0,0,0,0,0,0,0.041666668,0,0,0,0.083333336,0,0,0.16666667,0.20833333,0,0.041666668,0,0.041666668,0.083333336,0.125,0,0.041666668,0,0,0,0.041666668,0.041666668,0,0,0,0,0.041666668,0,0.041666668,0,0,0,0,0,0,0,0,0,62.625015,0.028985508,277.77777,4.385965,6.865565,329.36194
