Category,Chars,Alphabetic Chars,Upper-Case,Digit,White-Space,Tab,A,B,C,D,E,F,G,H,I,J,K,L,M,N,O,P,Q,R,S,T,U,V,W,X,Y,Z,f33,f34,f35,f36,f37,f38,f39,f40,f41,f42,f43,f44,f45,f46,f47,f48,f49,f50,f51,f52,f53,Words,Short_Words,Chars in Words,Word length,Sentence Len in chars,Sentence len in words,diff words,Once occuring words,Twice Occuring words,Avg Similarity Score,f64,f65,f66,f67,f68,Left bracs,Right Bracs,f71,f72,CC,CD,DT,EX,FW,IN,JJ,JJR,JJS,LS,MD,NN,NNP,NNPS,NNS,PDT,POS,PRP,f91,RB,RBR,RBS,RP,SYM,TO,UH,VB,VBD,VBG,VBN,VBP,VBZ,WDT,WP,f107,WRB,Flesh Reading,Yules K,Simpsons D,Sichels S,Brunets W,Honores R
R,2837,0.9020092,0.03877335,0.00211491,0.22876278,0,0.08071907,0.021501586,0.019386675,0.038420867,0.10574551,0.025026437,0.01973916,0.052520268,0.069439545,0.00211491,0.009164611,0.045118082,0.024673952,0.06520973,0.06520973,0.016919281,0.00140994,0.06838209,0.07472683,0.0775467,0.02749383,0.00563976,0.016214311,0.00140994,0.015156856,0.001057455,0,0,0,0,0,0,0,0,0.01339443,0,0,0,0,0,0,0,0,0,0,0,0,678,0.61946905,0.006923077,0.028968684,97.82758,23.37931,0.49557522,0.4041298,0.03539823,0.041983336,0,0,0,0,0.056047197,0.008849558,0.008849558,0.042772863,0.004424779,0.038348082,0.002949853,0.10176991,0,0.002949853,0.123893805,0.081120946,0.001474926,0.004424779,0,0.004424779,0.1740413,0.076696165,0.001474926,0.05162242,0,0.017699115,0.032448377,0.014749263,0.028023599,0,0,0.004424779,0,0.013274336,0,0.019174041,0.001474926,0.005899705,0.02359882,0.013274336,0.05162242,0.002949853,0.002949853,0,0.002949853,64.06607,0.013795027,137.7468,0.10535187,11.302316,652.69977
R,3539,0.91664314,0.046905905,0.001130263,0.23679006,0,0.08589997,0.016671376,0.022040125,0.033060186,0.11161345,0.025430912,0.015541113,0.04662334,0.077423,8.48E-04,0.008759537,0.05057926,0.025148347,0.060469057,0.0675332,0.015823679,0.001130263,0.06301215,0.070076294,0.07798813,0.016953941,0.009607234,0.016953941,0.001130263,0.019497033,0.001695394,0,0,0,0,0,0,0,0,0.008476971,0,0,0,0,0,0,0,0,0,0,0,0,863,0.63035923,0.004705477,0.019296272,141.56,34.52,0.4391657,0.33256084,0.0382387,0.002697782,0,0,0,0,0.05446118,0.006952491,0.006952491,0.028968714,0.003476246,0.027809964,0.005793743,0.09385863,0,0.008111239,0.12977983,0.07300116,0,0,0,0.005793743,0.17728853,0.101969875,0.001158749,0.039397452,0,0.022016222,0.03128621,0.012746234,0.03128621,0.002317497,0,0.001158749,0,0.012746234,0,0.011587486,0.004634994,0.013904982,0.012746234,0.009269988,0.05561993,0.004634994,0.004634994,0.004634994,0.004634994,50.337883,0.012092926,120.78913,0.10089367,11.749323,676.63513
R,3794,0.9312072,0.034791775,0.001581444,0.21982077,0,0.090405904,0.017132314,0.023194518,0.031365313,0.11439114,0.025039537,0.019768056,0.053505536,0.07037427,0.00131787,0.006325778,0.045334738,0.022667369,0.065629944,0.068529256,0.017923037,0.00131787,0.07195572,0.07063785,0.08170796,0.022667369,0.00975224,0.013442277,5.27E-04,0.015287296,5.27E-04,0,0,0,0,0,0,0,0,0.00843437,0,0,0,0,0,0,0,0,0,0,0,0,874,0.61098397,0.007170849,0.031128375,94.85,21.85,0.47597253,0.37185356,0.045766592,0.006007,0,0,0,0,0.037757438,0.004576659,0.004576659,0.049199086,0.011441648,0.037757438,0.004576659,0.1006865,0.002288329,0.004576659,0.112128146,0.07322654,0.003432494,0.001144165,0,0.005720824,0.17048055,0.07322654,0.001144165,0.044622425,0,0.0194508,0.02402746,0.028604118,0.028604118,0.002288329,0.001144165,0.001144165,0,0.02173913,0,0.025171624,0.003432494,0.013729977,0.013729977,0.012585812,0.053775743,0.003432494,0.008009153,0.001144165,0.005720824,58.918808,0.011690664,116.77288,0.11001585,11.354694,677.914
R,2817,0.9240327,0.039048634,0.001774938,0.2257721,0,0.07348243,0.016684417,0.028753994,0.034078807,0.122825705,0.028044019,0.020944268,0.055023074,0.07525737,0.001064963,0.003904863,0.046148386,0.019524317,0.063897766,0.06886759,0.015974442,0.001774938,0.063897766,0.061412852,0.08413205,0.023784168,0.012424565,0.017039403,0.002129925,0.013844515,0.001774938,0,0,0,0,0,0,0,0,0.009584664,0,0,0,0,0,0,0,0,0,0,0,0,668,0.6182635,0.007683117,0.03240021,88.03125,20.875,0.4760479,0.3428144,0.07335329,0.04663056,0,0,0,0,0.047904193,0.00748503,0.00748503,0.047904193,0.002994012,0.029940119,0.013473053,0.11377245,0,0.005988024,0.09431138,0.077844314,0,0.002994012,0,0.010479042,0.1511976,0.06287425,0,0.043413173,0,0.011976048,0.029940119,0.016467066,0.028443113,0.001497006,0.002994012,0.002994012,0,0.020958085,0,0.032934133,0.005988024,0.019461079,0.0254491,0.017964073,0.04491018,0.00748503,0.002994012,0.002994012,0.004491018,63.81275,0.013250859,132.31023,0.23067074,11.498693,651.13074
R,3107,0.92018026,0.042806566,0.001931123,0.22497585,0,0.08336016,0.016414547,0.02896685,0.032829095,0.111683294,0.025104603,0.022207918,0.048599936,0.07080785,6.44E-04,0.008690055,0.041197296,0.024460895,0.06404892,0.072738975,0.017701963,0.001609269,0.06758931,0.0621178,0.07756679,0.02574831,0.012874155,0.015448987,0.001287416,0.017058255,9.66E-04,0,0,0,0,0,0,3.22E-04,0,0.006437078,0,0,0,0,0,0,0,0,0,0,0,0,737,0.6065129,0.008179147,0.034481153,81.76316,19.394737,0.49389416,0.37177747,0.062415197,0.009012497,0,0,0,0,0.05020353,0.005427409,0.005427409,0.05156038,0.002713704,0.029850746,0.005427409,0.10719132,0.001356852,0,0.094979644,0.080054276,0.004070556,0.001356852,0,0.009497965,0.17232022,0.093622796,0.001356852,0.03934871,0,0.013568522,0.02578019,0.031207599,0.03256445,0.001356852,0.001356852,0.002713704,0,0.01899593,0,0.02578019,0.014925373,0.016282225,0.006784261,0.012211669,0.04070556,0.002713704,0.002713704,0.001356852,0.004070556,64.43918,0.012012566,119.96266,0.17147033,11.277983,660.93384
R,2313,0.8949416,0.05361003,0.002594034,0.23173368,0,0.08084738,0.022481626,0.024210982,0.029399049,0.105058365,0.02075227,0.021184608,0.047557283,0.068741895,4.32E-04,0.005620407,0.05404237,0.023778642,0.059662774,0.06225681,0.013402508,0.001729356,0.0665802,0.07133593,0.08084738,0.023778642,0.009079118,0.012970169,0.002161695,0.019887593,8.65E-04,0,0,0,0,0,0,0,0,0.014267186,0,0,0,0,0,0,0,0,0,0,0,0,555,0.62702703,0.005489079,0.022876108,121.73684,29.210526,0.5045045,0.3927928,0.05045045,0.006863523,0,0,0,0,0.06306306,0.010810811,0.010810811,0.02882883,0,0.034234233,0.009009009,0.08288288,0.001801802,0.009009009,0.093693696,0.07387388,0.001801802,0.003603604,0,0,0.38198197,0.117117114,0.001801802,0.034234233,0,0,0.014414415,0.010810811,0.05045045,0,0,0.001801802,0,0.018018018,0.003603604,0.009009009,0.007207207,0.018018018,0.025225226,0.016216217,0.06846847,0.005405406,0.005405406,0,0.003603604,56.00255,0.012417472,123.95098,0.18018019,11.297029,632.78455
R,3827,0.88868564,0.045989025,0.005226026,0.2241965,0,0.094591066,0.019597596,0.024039717,0.035798274,0.097204074,0.026130129,0.01620068,0.0412856,0.07473217,7.84E-04,0.005226026,0.051737655,0.025346225,0.062189706,0.065847926,0.017768487,0.001045205,0.07917429,0.05879279,0.07081265,0.020904103,0.010974654,0.01437157,0.001045205,0.01620068,0.002874314,0,0,0,0,0,0,0,0,0.016461981,0,0,0,0,0,0,0,0,0,2.61E-04,0,0,884,0.58371043,0.004620344,0.020002326,147.1923,34,0.4377828,0.3382353,0.03733032,0.026283592,0,0,0,0,0.05882353,0.010180996,0.009049774,0.03280543,0.012443439,0.040723983,0.009049774,0.095022626,0,0.005656109,0.108597286,0.0882353,0,0.001131222,0,0.00678733,0.1821267,0.10294118,0.002262444,0.033936653,0.001131222,0.0260181,0.024886878,0.011312217,0.0260181,0.003393665,0,0,0,0.010180996,0,0.010180996,0.00678733,0.011312217,0.013574661,0.005656109,0.041855205,0.004524887,0.005656109,0,0.002262444,43.60669,0.013349185,133.34084,0.09646077,11.749293,679.0392
R,3136,0.8934949,0.04336735,0.00127551,0.2429847,0,0.08163265,0.027104592,0.02455357,0.030931123,0.11383928,0.023596939,0.019770408,0.05229592,0.076211736,9.57E-04,0.008928572,0.047831632,0.017219387,0.06473214,0.05994898,0.01434949,0.00127551,0.0711097,0.0625,0.071428575,0.021364795,0.010204081,0.015625,3.19E-04,0.02072704,6.38E-04,0,0,0,0,0,0,0,0,0.019132653,0,0,0,0,0,0,0,0,0,0,0,0,786,0.63104326,0.005028942,0.020064583,130.66667,32.75,0.45165396,0.34987277,0.03562341,0.025756732,0,0,0,0,0.06361323,0.013994911,0.013994911,0.030534351,0.010178117,0.027989822,0.003816794,0.09033079,0,0.002544529,0.114503816,0.07379135,0.005089059,0.001272265,0,0.003816794,0.18066157,0.062340967,0,0.041984733,0,0.008905852,0.048346058,0.029262086,0.036895674,0.001272265,0,0.001272265,0,0.01653944,0,0.024173029,0.011450382,0.011450382,0.01908397,0.007633588,0.05470738,0.002544529,0.001272265,0.002544529,0.001272265,57.995285,0.013150516,131.33786,0.10034763,11.668672,667.3534
R,581,0.90189326,0.036144577,0.003442341,0.22547331,0,0.072289154,0.017211704,0.024096385,0.029259896,0.113597244,0.029259896,0.020654045,0.032702237,0.084337346,0.00172117,0.00172117,0.049913943,0.024096385,0.060240965,0.06712565,0.017211704,0.00172117,0.068846814,0.06712565,0.07401033,0.030981068,0.012048192,0.017211704,0.00172117,0.013769363,0,0,0,0,0,0,0,0,0,0.010327023,0,0,0,0,0,0,0,0,0,0,0,0,138,0.6086956,0.008158708,0.03434934,83,19.714285,0.6884058,0.5507246,0.072463766,0.031685106,0,0,0,0,0.06521739,0,0,0.050724637,0,0.028985508,0.007246377,0.08695652,0,0.007246377,0.11594203,0.06521739,0,0,0,0,0.24637681,0.10869565,0,0.02173913,0,0.02173913,0.014492754,0.007246377,0.050724637,0,0,0,0,0.014492754,0,0.007246377,0,0.014492754,0.04347826,0,0.06521739,0,0,0.007246377,0,61.764145,0.010896012,108.170555,0.7627765,9.697946,495.5984
R,2859,0.9097586,0.052116126,0.004197272,0.22315495,0,0.07974816,0.020286813,0.025533404,0.03287863,0.11192725,0.022035677,0.019587269,0.05176635,0.07345226,0.002098636,0.00524659,0.054564532,0.02133613,0.058761805,0.07310248,0.01853795,0.001049318,0.07170339,0.06610703,0.076949984,0.022035677,0.010842952,0.012242042,0.001748863,0.01713886,0.002448409,0,0,0,0,0,0,0,0,0.011542497,0,0,0,0,0,0,0,0,0,0,0,0,662,0.5936556,0.005720255,0.024704242,119.125,27.583334,0.5151057,0.41842902,0.039274924,0.007902303,0,0,0,0,0.067975834,0.009063444,0.009063444,0.036253776,0,0.025679758,0.009063444,0.08610272,0.001510574,0.009063444,0.101208456,0.06344411,0.001510574,0.003021148,0,0.006042296,0.14048338,0.13595167,0,0.036253776,0,0.01510574,0.0347432,0.021148037,0.03021148,0,0,0.003021148,0,0.01510574,0,0.021148037,0.006042296,0.016616315,0.010574019,0.010574019,0.054380666,0.006042296,0.006042296,0,0.00755287,50.02101,0.012971283,129.51689,0.11517573,11.13468,650.3245
R,2943,0.9099558,0.042133875,0.002038736,0.22562012,0,0.08290859,0.02004757,0.024125043,0.028202515,0.10703364,0.023445465,0.015630309,0.057764187,0.07067618,0.001359157,0.00543663,0.050288823,0.02582399,0.05640503,0.06422018,0.022086307,0.001698947,0.068637446,0.074074075,0.08290859,0.019367991,0.008834522,0.014950731,0.001698947,0.02004757,0.002038736,0,0,0,0,0,0,0,0,0.011892627,0,0,0,0,0,0,0,0,0,0,0,0,700,0.61714286,0.008188764,0.0344279,81.75,19.444445,0.46142858,0.33142856,0.06285714,0.03685093,0,0,0,0,0.068571426,0.008571428,0.008571428,0.055714287,0.002857143,0.032857142,0.005714286,0.08857143,0,0.002857143,0.09,0.06285714,0.001428571,0,0,0.004285714,0.12714286,0.07714286,0.001428571,0.04142857,0.002857143,0.011428571,0.045714285,0.03142857,0.042857144,0.001428571,0.001428571,0.005714286,0,0.021428572,0,0.025714286,0.004285714,0.005714286,0.024285715,0.012857143,0.068571426,0,0.008571428,0,0.008571428,64.06632,0.013116698,130.9796,0.19460416,11.62651,655.78094
R,3700,0.91486484,0.032162163,0.001891892,0.21891892,0,0.08027027,0.018378379,0.026486486,0.028108109,0.112162165,0.02135135,0.021891892,0.05108108,0.07648648,8.11E-04,0.007297298,0.05054054,0.02135135,0.066756755,0.06162162,0.015405405,8.11E-04,0.06810811,0.06864865,0.08297297,0.025135135,0.01,0.014324324,0.001621622,0.02027027,8.11E-04,0,0,0,0,0,0,0,0,0.00972973,0,0,0,0,0,0,0,0,0,0,0,0,848,0.5860849,0.006967988,0.030402778,97.36842,22.31579,0.5,0.3962264,0.04245283,0.04516069,0,0,0,0,0.030660378,0.005896227,0.005896227,0.04481132,0.004716981,0.018867925,0.007075472,0.091981135,0.002358491,0.001179245,0.11438679,0.08254717,0.001179245,0.002358491,0,0.005896227,0.17099057,0.07429245,0,0.04245283,0.001179245,0.017688679,0.038915094,0.02004717,0.04009434,0.002358491,0.001179245,0.005896227,0,0.02240566,0,0.021226415,0.004716981,0.023584906,0.02004717,0.014150944,0.0625,0.004716981,0.007075472,0,0.004716981,56.88542,0.009818226,98.06648,0.1001246,11.144857,674.91876
R,3804,0.90641433,0.04284963,0.003154574,0.22108307,0,0.07912724,0.020767612,0.029968454,0.031019978,0.097003154,0.024973711,0.019190326,0.050210305,0.08149316,5.26E-04,0.007097792,0.052839115,0.02444795,0.063354366,0.06230284,0.015247108,0.002103049,0.057833858,0.07360673,0.077024184,0.025499474,0.009989485,0.016561514,7.89E-04,0.01577287,0.001840168,0,0,0,0,0,0,0,0,0.011303891,0,0,0,0,0,0,0,0,0,0,0,0,874,0.604119,0.005899336,0.025676284,115.27273,26.484848,0.4839817,0.38215104,0.046910755,0.003577704,0,0,0,0,0.057208236,0.008009153,0.008009153,0.037757438,0.010297483,0.037757438,0.003432494,0.094965674,0.001144165,0.003432494,0.104118995,0.08581236,0.001144165,0.001144165,0,0.004576659,0.18993135,0.10297483,0.002288329,0.04347826,0,0.017162472,0.02173913,0.012585812,0.027459955,0.002288329,0,0.002288329,0,0.006864989,0,0.012585812,0.016018307,0.016018307,0.017162472,0.006864989,0.04118993,0.001144165,0.005720824,0.006864989,0.002288329,53.14968,0.012605472,125.910484,0.110900134,11.2768135,677.9205
A,270,0.97037035,0.02962963,0.003703704,0.25555557,0,0.07037037,0.014814815,0.02962963,0.05185185,0.1,0.022222223,0.018518519,0.055555556,0.1037037,0,0.003703704,0.02962963,0.018518519,0.07777778,0.07037037,0.007407407,0,0.04074074,0.07777778,0.09259259,0.033333335,0.014814815,0.018518519,0.003703704,0.014814815,0.007407407,0,0,0,0,0,0,0,0,0,0,0,0,0,0,0,0,0,0,0,0,0,73,0.72602737,0.009548751,0.035317298,67.5,18.25,0.7123288,0.53424656,0.09589041,0,0,0,0,0,0,0,0,0.05479452,0,0.05479452,0.02739726,0.1369863,0,0,0.10958904,0.06849315,0.01369863,0,0,0.05479452,0.09589041,0.01369863,0,0.02739726,0.01369863,0,0.09589041,0,0.04109589,0,0,0,0,0,0,0.06849315,0.01369863,0,0,0.02739726,0.05479452,0.01369863,0,0,0.01369863,79.37427,0.011796042,116.34453,1.8440464,8.950512,433.49973
A,1362,0.9361234,0.04992658,0.007342144,0.23201175,0,0.09397944,0.026431719,0.019823788,0.028634362,0.12334802,0.03010279,0.019823788,0.049192365,0.06975037,0.002936858,0.005139501,0.050660793,0.03010279,0.06167401,0.06314244,0.01688693,7.34E-04,0.07048458,0.06314244,0.07195301,0.019823788,0.008076359,0.013950073,0.002202643,0.022760646,7.34E-04,0,0,0,0,0,0,0,0,0.012481645,0,0,0,0,0,0,0,0,0,0,0,0,326,0.65337425,0.004957176,0.020710656,136.2,32.6,0.5552147,0.42331287,0.055214725,0.001475177,0,0,0,0,0.009202454,0.012269938,0.012269938,0.030674847,0.009202454,0.0398773,0.018404908,0.116564415,0,0,0.12269939,0.06748466,0,0,0,0.006134969,0.12576687,0.11042945,0,0.021472393,0,0.006134969,0.027607363,0.012269938,0.0398773,0.003067485,0.003067485,0,0,0.015337423,0,0.024539877,0.015337423,0.027607363,0.036809817,0.012269938,0.058282208,0.009202454,0.003067485,0,0.003067485,51.517174,0.012175554,121.382065,0.3050537,10.928073,580.04626
A,204,0.9754902,0.029411765,0,0.2647059,0,0.063725494,0.009803922,0.029411765,0.039215688,0.17156863,0.024509804,0.019607844,0.05392157,0.083333336,0,0.004901961,0.04411765,0.014705882,0.04411765,0.068627454,0.004901961,0,0.04411765,0.05882353,0.0882353,0.029411765,0.039215688,0.024509804,0,0.014705882,0,0,0,0,0,0,0,0,0,0,0,0,0,0,0,0,0,0,0,0,0,0,57,0.7719298,0.009491511,0.033969615,68,19,0.68421054,0.49122807,0.12280702,0.025986053,0,0,0,0,0.03508772,0,0,0.05263158,0,0.03508772,0.01754386,0.15789473,0,0,0.10526316,0.05263158,0,0,0,0.01754386,0.12280702,0,0,0.05263158,0,0,0.0877193,0,0.07017544,0,0,0,0,0.01754386,0,0.05263158,0.0877193,0,0.01754386,0.01754386,0,0,0,0,0,86.62369,0.01942356,190.82794,3.1488981,8.748163,409.46252
A,609,0.8686371,0.02955665,0,0.25615764,0,0.08374384,0.009852217,0.009852217,0.031198686,0.093596056,0.031198686,0.024630541,0.060755335,0.098522164,0,0.004926108,0.03776683,0.018062398,0.08210181,0.04761905,0.011494253,0,0.052545156,0.055829227,0.111658454,0.01642036,0.009852217,0.019704433,0,0.02955665,0,0,0,0,0,0,0,0,0,0,0,0,0,0,0,0,0,0,0,0,0,0,163,0.70552146,0.0074136,0.027698666,87,23.285715,0.5766871,0.41717792,0.073619634,0.0224884,0,0,0,0,0.061349694,0,0,0.036809817,0,0.018404908,0,0.09815951,0,0,0.06748466,0.073619634,0,0,0,0,0.15337424,0.024539877,0,0.006134969,0,0.006134969,0.06748466,0,0.061349694,0.006134969,0,0,0,0.018404908,0,0.049079753,0.018404908,0.018404908,0.042944785,0.030674847,0.061349694,0.012269938,0,0,0.018404908,71.09204,0.014239188,141.51831,0.78318757,10.516161,511.6457
A,2059,0.96600294,0.01651287,0.001942691,0.2326372,0,0.07965031,0.012627489,0.027197668,0.025740651,0.1243322,0.026226323,0.024769306,0.061194755,0.07965031,0.001457018,0.002428363,0.054395337,0.027197668,0.0675085,0.07042254,0.015541525,0,0.057309374,0.06070908,0.09082079,0.017484216,0.012627489,0.014570179,0.001942691,0.019912578,0,0,0,0,0,0,0,0,0,0,0,0,0,0,0,0,0,0,0,0,0,0,496,0.6592742,0.005545348,0.023019902,121.117645,29.17647,0.46774194,0.3326613,0.06653226,5.58E-04,0,0,0,0,0.044354837,0,0,0.034274194,0,0.028225806,0.016129032,0.12298387,0,0,0.13306452,0.07258064,0.012096774,0.004032258,0,0.004032258,0.16129032,0.030241935,0,0.04233871,0,0.006048387,0.03629032,0.010080645,0.044354837,0.004032258,0,0.006048387,0,0.024193548,0,0.024193548,0.004032258,0.014112903,0.016129032,0.022177419,0.05645161,0.016129032,0,0,0.006048387,56.631775,0.015420333,153.89243,0.286777,11.690503,621.5488
A,228,0.9605263,0.01754386,0,0.24561404,0,0.0745614,0.004385965,0.013157895,0.030701755,0.10964912,0.004385965,0.030701755,0.05263158,0.0745614,0.004385965,0.004385965,0.057017542,0.021929825,0.048245613,0.083333336,0.004385965,0,0.07017544,0.06140351,0.0745614,0.030701755,0.02631579,0.04385965,0.004385965,0.03508772,0,0,0,0,0,0,0,0,0,0,0,0,0,0,0,0,0,0,0,0,0,0,59,0.62711865,0.008424578,0.032555997,76,19.666666,0.7966102,0.6779661,0.050847456,0.019132994,0,0,0,0,0.016949153,0,0,0.050847456,0.016949153,0.016949153,0,0.118644066,0,0,0.084745765,0.10169491,0,0,0,0.016949153,0.20338982,0,0,0,0,0.016949153,0.033898305,0.016949153,0.084745765,0,0,0,0,0.033898305,0,0.050847456,0.016949153,0.016949153,0.016949153,0,0.050847456,0,0.016949153,0,0.016949153,73.595375,0.010520164,103.41856,1.0818608,8.323232,413.72162
A,68,0.9705882,0.014705882,0,0.2647059,0,0.05882353,0.014705882,0.014705882,0.073529415,0.0882353,0,0.029411765,0.04411765,0.11764706,0,0.029411765,0.04411765,0,0.073529415,0.05882353,0,0,0.05882353,0.073529415,0.0882353,0.029411765,0.029411765,0.04411765,0,0,0,0,0,0,0,0,0,0,0,0,0,0,0,0,0,0,0,0,0,0,0,0,19,0.6315789,0.009433962,0.03376366,68,19,0.94736844,0.8947368,0.05263158,0,0,0,0,0,0.05263158,0,0,0.05263158,0,0.05263158,0,0.10526316,0.05263158,0,0.05263158,0.10526316,0,0,0,0,0.21052632,0,0,0,0,0,0.10526316,0,0,0,0,0,0,0,0,0,0.10526316,0.05263158,0,0,0.05263158,0,0,0,0,80.68685,0.005847953,55.40166,2.9239767,6.0580244,309.84558
A,76,0.9868421,0.013157895,0,0.19736843,0,0.065789476,0.02631579,0.05263158,0.065789476,0.10526316,0.013157895,0.013157895,0.02631579,0.078947365,0,0,0.065789476,0.05263158,0.065789476,0.09210526,0.013157895,0,0.065789476,0.02631579,0.09210526,0.013157895,0.013157895,0.013157895,0,0.02631579,0,0,0,0,0,0,0,0,0,0,0,0,0,0,0,0,0,0,0,0,0,0,16,0.4375,0.00925926,0.043981485,76,16,1,1,0,0,0,0,0,0,0,0,0,0.0625,0,0.0625,0,0.125,0,0,0.125,0.1875,0,0,0,0,0.3125,0,0,0,0,0,0.0625,0,0,0,0,0,0,0.0625,0,0,0,0,0,0,0,0,0,0,0,53.12001,0,0,0,5.6437774,295.7428
A,86,0.9883721,0.011627907,0,0.23255815,0,0.023255814,0.011627907,0,0.058139537,0.13953489,0,0.011627907,0.046511628,0.11627907,0.011627907,0.011627907,0.046511628,0.011627907,0.08139535,0.058139537,0.011627907,0,0.023255814,0.08139535,0.13953489,0.034883723,0.023255814,0.023255814,0,0.023255814,0,0,0,0,0,0,0,0,0,0,0,0,0,0,0,0,0,0,0,0,0,0,21,0.6666667,0.0078125,0.03199405,86,21,0.85714287,0.71428573,0.14285715,0,0,0,0,0,0.04761905,0,0,0,0,0.04761905,0,0.0952381,0,0,0.0952381,0.04761905,0,0,0,0,0.14285715,0.04761905,0,0,0,0,0.14285715,0,0.0952381,0,0,0,0,0,0,0,0.1904762,0,0.04761905,0,0,0,0,0,0,64.66286,0.014285714,136.05443,7.936508,6.4405503,317.03293
A,88,0.97727275,0.03409091,0,0.23863636,0,0.06818182,0.011363637,0.022727273,0.045454547,0.11363637,0.022727273,0,0.06818182,0.125,0,0,0.06818182,0.045454547,0.03409091,0.045454547,0.022727273,0,0.03409091,0.07954545,0.07954545,0.011363637,0.022727273,0.022727273,0.011363637,0.022727273,0,0,0,0,0,0,0,0,0,0,0,0,0,0,0,0,0,0,0,0,0,0,23,0.65217394,0.014939752,0.05716079,44,11.5,0.8695652,0.73913044,0.13043478,0.025454545,0,0,0,0,0,0,0,0.08695652,0,0.04347826,0,0.17391305,0,0,0.08695652,0.13043478,0,0,0,0,0.08695652,0,0,0,0,0,0.13043478,0,0.04347826,0,0,0,0,0,0,0,0.08695652,0,0.04347826,0.04347826,0.04347826,0,0,0,0,81.13642,0.011857707,113.42155,6.521739,6.581199,325.58182
A,103,0.9708738,0.029126214,0,0.23300971,0,0.067961164,0.009708738,0,0.019417476,0.13592233,0.048543688,0.019417476,0.019417476,0.0776699,0,0.009708738,0.029126214,0.048543688,0.048543688,0.106796116,0.019417476,0,0.029126214,0.08737864,0.067961164,0.048543688,0.029126214,0,0,0.03883495,0.009708738,0,0,0,0,0,0,0,0,0,0,0,0,0,0,0,0,0,0,0,0,0,27,0.7037037,0.019207695,0.0732738,34.333332,9,0.8518519,0.7777778,0,0.023049427,0,0,0,0,0,0,0,0.11111111,0,0.037037037,0.037037037,0.11111111,0,0,0.14814815,0.11111111,0,0,0,0,0.22222222,0.037037037,0,0.037037037,0,0,0.037037037,0.074074075,0,0,0,0,0,0,0,0,0,0,0,0,0.037037037,0,0,0,0,88.033356,0.017094018,164.60905,0,6.917601,341.1191
A,168,0.9285714,0.041666668,0,0.26190478,0,0.0952381,0.017857144,0.023809524,0.023809524,0.0952381,0.023809524,0.041666668,0.041666668,0.08928572,0,0.011904762,0.05952381,0.023809524,0.029761905,0.05952381,0,0,0.077380955,0.04761905,0.10119048,0.035714287,0,0.017857144,0,0.029761905,0,0,0,0,0,0,0,0,0,0,0,0,0,0,0,0,0,0,0,0,0,0,48,0.7291667,0.015168959,0.05309136,42,12,0.7916667,0.7083333,0,0.021590963,0,0,0,0,0.020833334,0,0,0.0625,0.020833334,0.041666668,0,0.083333336,0,0,0.0625,0.104166664,0,0,0,0.020833334,0.0625,0,0,0.041666668,0,0,0.16666667,0.041666668,0.125,0,0,0,0,0,0,0.020833334,0.020833334,0.020833334,0,0.041666668,0.041666668,0,0,0,0,90.6675,0.015957447,156.25,0,8.051411,394.47324
A,136,0.9485294,0.18382353,0,0.25,0,0.080882356,0.014705882,0.05147059,0.05147059,0.13970588,0.036764707,0,0.029411765,0.11029412,0,0.014705882,0.10294118,0.029411765,0.029411765,0.029411765,0.007352941,0,0.05147059,0.05147059,0.066176474,0.007352941,0.022058824,0.022058824,0,0.007352941,0,0,0,0,0,0,0,0.007352941,0,0,0,0,0,0,0,0,0,0,0,0,0,0,38,0.68421054,0.018457308,0.066057734,34,9.5,0.7631579,0.57894737,0.15789473,0.016047463,0,0,0,0,0,0,0,0.10526316,0,0.02631579,0,0.15789473,0,0,0.05263158,0.02631579,0,0,0,0.02631579,0.15789473,0,0,0.05263158,0,0.02631579,0.15789473,0,0,0,0,0,0,0,0,0.02631579,0.10526316,0,0.05263158,0.02631579,0,0,0,0,0,88.103035,0.017069701,166.20499,5.444646,7.7844925,371.1685
